<?xml version="1.0" encoding="UTF-8" standalone="no"?>
<!-- Created with Inkscape (http://www.inkscape.org/) -->

<svg
   width="224"
   height="96"
   viewBox="0 0 224 96.000005"
   version="1.1"
   id="svg5"
   inkscape:version="1.1 (1:1.1+202105261517+ce6663b3b7)"
   sodipodi:docname="entry_and_exit.svg"
   inkscape:export-filename="/home/maren/Dokumente/m23-Zeug/Kilux/kielux-wa-maps/public/Kitz/tilesets/entry_and_exit.png"
   inkscape:export-xdpi="96"
   inkscape:export-ydpi="96"
   xmlns:inkscape="http://www.inkscape.org/namespaces/inkscape"
   xmlns:sodipodi="http://sodipodi.sourceforge.net/DTD/sodipodi-0.dtd"
   xmlns="http://www.w3.org/2000/svg"
   xmlns:svg="http://www.w3.org/2000/svg">
  <sodipodi:namedview
     id="namedview7"
     pagecolor="#ffffff"
     bordercolor="#666666"
     borderopacity="1.0"
     inkscape:pageshadow="2"
     inkscape:pageopacity="0.0"
     inkscape:pagecheckerboard="false"
     inkscape:document-units="px"
     showgrid="true"
     units="px"
     inkscape:snap-bbox="true"
     inkscape:bbox-paths="true"
     inkscape:bbox-nodes="true"
     inkscape:snap-global="false"
     inkscape:snap-bbox-edge-midpoints="true"
     inkscape:snap-bbox-midpoints="true"
     inkscape:zoom="3.2120625"
     inkscape:cx="145.54511"
     inkscape:cy="59.930341"
     inkscape:window-width="1920"
     inkscape:window-height="1133"
     inkscape:window-x="0"
     inkscape:window-y="0"
     inkscape:window-maximized="1"
     inkscape:current-layer="g7328-67"
     width="224px">
    <inkscape:grid
       type="xygrid"
       id="grid824"
       spacingx="32.000001"
       spacingy="32.000001" />
  </sodipodi:namedview>
  <defs
     id="defs2">
    <clipPath
       id="clipPath4258"
       clipPathUnits="userSpaceOnUse">
      <path
         id="path4260"
         d="M 0,11.34 H 11.34 V 0 H 0 Z" />
    </clipPath>
  </defs>
  <g
     inkscape:label="Ebene 1"
     inkscape:groupmode="layer"
     id="layer1">
    <rect
       style="font-variation-settings:normal;opacity:1;vector-effect:none;fill:#ffffff;fill-opacity:1;stroke:none;stroke-width:2.09519;stroke-linecap:butt;stroke-linejoin:miter;stroke-miterlimit:4;stroke-dasharray:none;stroke-dashoffset:0;stroke-opacity:1;-inkscape-stroke:none;paint-order:fill markers stroke;stop-color:#000000;stop-opacity:1"
       id="rect7880"
       width="32"
       height="32"
       x="32"
       y="64" />
    <rect
       style="fill:#ffffff;fill-rule:evenodd;stroke-width:1.51181;paint-order:stroke markers fill;stop-color:#000000"
       id="rect71"
       width="32"
       height="32"
       x="32"
       y="32" />
    <rect
       style="fill:#ffffff;stroke:none;paint-order:stroke markers fill;stop-color:#000000"
       id="rect10427"
       width="32"
       height="32"
       x="0"
       y="32" />
    <g
       id="g1251"
       inkscape:export-filename="/home/maren/Dokumente/Programmpakete/tiled/Kitz/tilesets/entry_and_exit.png"
       inkscape:export-xdpi="95.999992"
       inkscape:export-ydpi="95.999992">
      <rect
         style="fill:#ffffff;fill-opacity:1;fill-rule:evenodd;stroke:#cc0000;stroke-width:8.08179;-inkscape-stroke:none;paint-order:markers stroke fill;stop-color:#000000"
         id="rect841"
         width="23.918215"
         height="23.918215"
         x="4.0408945"
         y="4.0408945" />
      <path
         style="fill:none;fill-opacity:1;fill-rule:evenodd;stroke:#cc0000;stroke-width:3.77953;-inkscape-stroke:none;paint-order:markers stroke fill;stop-color:#000000"
         d="M 2,2 30.000001,30.000001"
         id="path1008"
         sodipodi:nodetypes="cc" />
      <path
         style="fill:none;fill-opacity:1;fill-rule:evenodd;stroke:#cc0000;stroke-width:3.77953;-inkscape-stroke:none;paint-order:markers stroke fill;stop-color:#000000"
         d="M 30.000001,2 2,30.000001"
         id="path1246"
         sodipodi:nodetypes="cc" />
    </g>
    <g
       id="g1378"
       transform="translate(32.000001)"
       style="stroke:#99cc33"
       inkscape:export-filename="/home/maren/Dokumente/Programmpakete/tiled/Kitz/tilesets/entry_and_exit.png"
       inkscape:export-xdpi="95.999992"
       inkscape:export-ydpi="95.999992">
      <rect
         style="fill:#ffffff;fill-opacity:1;fill-rule:evenodd;stroke:#99cc33;stroke-width:8.08179;-inkscape-stroke:none;paint-order:markers stroke fill;stop-color:#000000"
         id="rect1372"
         width="23.918215"
         height="23.918215"
         x="4.0408945"
         y="4.0408945" />
      <path
         style="fill:none;fill-opacity:1;fill-rule:evenodd;stroke:#99cc33;stroke-width:3.34351;-inkscape-stroke:none;paint-order:markers stroke fill;stop-color:#000000"
         d="M 1.8458415,1.8458415 30.154159,30.154159"
         id="path1374"
         sodipodi:nodetypes="cc" />
      <path
         style="fill:none;fill-opacity:1;fill-rule:evenodd;stroke:#99cc33;stroke-width:3.77953;-inkscape-stroke:none;paint-order:markers stroke fill;stop-color:#000000"
         d="M 30.000001,2 2,30.000001"
         id="path1376"
         sodipodi:nodetypes="cc" />
    </g>
    <g
       transform="matrix(2.2432077,0,0,-2.2432077,3.2810717,60.71876)"
       id="g4252"
       style="stroke:#003399">
      <g
         style="stroke:#003399;stroke-opacity:1"
         transform="rotate(11.736243,5.6699937,5.6697707)"
         id="g4254">
        <g
           style="stroke:#003399;stroke-opacity:1"
           clip-path="url(#clipPath4258)"
           id="g4256">
          <g
             style="stroke:#003399;stroke-opacity:1"
             transform="translate(0.563,5.6699)"
             id="g4262">
            <path
               id="path4264"
               style="fill:none;stroke:#003399;stroke-width:1;stroke-linecap:butt;stroke-linejoin:miter;stroke-miterlimit:10;stroke-dasharray:none;stroke-opacity:1"
               d="M 0,0 C 0,2.82 2.287,5.107 5.107,5.107 7.927,5.107 10.214,2.82 10.214,0 10.214,-2.82 7.927,-5.107 5.107,-5.107 2.287,-5.107 0,-2.82 0,0 Z" />
          </g>
          <g
             style="stroke:#003399;stroke-opacity:1"
             transform="translate(8.4111,5.6704)"
             id="g4266">
            <path
               id="path4268"
               style="fill:none;stroke:#003399;stroke-width:1;stroke-linecap:butt;stroke-linejoin:miter;stroke-miterlimit:10;stroke-dasharray:none;stroke-opacity:1"
               d="M 0,0 C 0,2.819 -1.259,5.106 -2.811,5.106 -4.363,5.106 -5.622,2.819 -5.622,0 -5.622,-2.823 -4.363,-5.108 -2.811,-5.108 -1.259,-5.108 0,-2.823 0,0 Z" />
          </g>
          <g
             style="stroke:#003399;stroke-opacity:1"
             transform="translate(5.6699,10.647)"
             id="g4270">
            <path
               id="path4272"
               style="fill:none;stroke:#003399;stroke-width:1;stroke-linecap:butt;stroke-linejoin:miter;stroke-miterlimit:10;stroke-dasharray:none;stroke-opacity:1"
               d="M 0,0 V -9.855" />
          </g>
          <g
             style="stroke:#003399;stroke-opacity:1"
             transform="translate(0.563,5.6699)"
             id="g4274">
            <path
               id="path4276"
               style="fill:none;stroke:#003399;stroke-width:1;stroke-linecap:butt;stroke-linejoin:miter;stroke-miterlimit:10;stroke-dasharray:none;stroke-opacity:1"
               d="M 0,0 H 10.214" />
          </g>
        </g>
      </g>
    </g>
    <g
       id="g1"
       transform="matrix(0.32578129,0,0,0.32578129,36.026042,36.4158)">
      <polygon
         style="fill:#111111;stroke:#111111;stroke-width:5;stroke-linejoin:round"
         points="6,28.606 6,47.699 21.989,47.699 39.389,62.75 39.389,13.769 22.235,28.606 "
         id="polygon1" />
      <path
         style="fill:none;stroke:#111111;stroke-width:5;stroke-linecap:round"
         d="M 48.128,49.03 C 50.057,45.934 51.19,42.291 51.19,38.377 51.19,34.399 50.026,30.703 48.043,27.577"
         id="path1"
         inkscape:connector-curvature="0" />
      <path
         style="fill:none;stroke:#111111;stroke-width:5;stroke-linecap:round"
         d="M 55.082,20.537 C 58.777,25.523 60.966,31.694 60.966,38.377 60.966,44.998 58.815,51.115 55.178,56.076"
         id="path2"
         inkscape:connector-curvature="0" />
      <path
         style="fill:none;stroke:#111111;stroke-width:5;stroke-linecap:round"
         d="M 61.71,62.611 C 66.977,55.945 70.128,47.531 70.128,38.378 70.128,29.161 66.936,20.696 61.609,14.01"
         id="path3446"
         inkscape:connector-curvature="0" />
    </g>
    <g
       id="layer1-3"
       transform="matrix(2.0137291,0,0,2.1799555,62.33842,-5.3217115)"
       style="opacity:0.5">
      <path
         id="path3201"
         d="M 128.52,250.93 A 21.3765,19.746462 0 1 1 85.767,250.93 21.3765,19.746462 0 1 1 128.52,250.93 Z"
         transform="translate(-82.482,-226.47)"
         stroke="#000000"
         stroke-width="2.25"
         fill="none" />
      <path
         id="rect3223"
         d="M 15.974,12.273 C 12.9407,12.273 10.474,14.5118 10.474,17.2418 10.474,19.9717 12.9407,22.1793 15.974,22.1793 19.0073,22.1793 21.474,19.9717 21.474,17.2418 21.474,14.5119 19.0073,12.273 15.974,12.273 Z M 28.786,12.273 C 25.7527,12.273 23.286,14.5118 23.286,17.2418 23.286,19.9717 25.7527,22.1793 28.786,22.1793 31.8193,22.1793 34.286,19.9717 34.286,17.2418 34.286,14.5119 31.8193,12.273 28.786,12.273 Z M 14.286,22.711 C 13.79296,22.711 13.411,23.12421 13.411,23.61725 V 35.74225 C 13.411,36.23529 13.79296,36.6485 14.286,36.6485 H 31.567 C 32.06004,36.6485 32.442,36.23529 32.442,35.74225 V 23.61725 C 32.442,23.12421 32.06004,22.711 31.567,22.711 Z M 33.692,26.7422 C 33.19896,26.7422 32.817,27.15541 32.817,27.64845 V 32.27345 C 32.817,32.76649 33.19896,33.14845 33.692,33.14845 H 37.9732 C 38.46624,33.14845 38.8482,32.76649 38.8482,32.27345 V 27.64845 C 38.8482,27.15541 38.46624,26.7422 37.9732,26.7422 Z" />
    </g>
    <rect
       style="opacity:1;fill:#ffffff;stroke:none;stroke-width:3.87493;-inkscape-stroke:none;paint-order:stroke markers fill;stop-color:#000000"
       id="rect84"
       width="32"
       height="32"
       x="0"
       y="64" />
    <g
       id="g42"
       transform="matrix(0.54827704,0,0,0.5911025,2.4786658,65.541633)"
       style="opacity:1">
      <path
         id="path38"
         d="M 128.52,250.93 A 21.3765,19.746462 0 1 1 85.767,250.93 21.3765,19.746462 0 1 1 128.52,250.93 Z"
         transform="translate(-82.482,-226.47)"
         stroke="#000000"
         stroke-width="2.25"
         fill="none" />
      <path
         id="path40"
         d="M 15.974,12.273 C 12.9407,12.273 10.474,14.5118 10.474,17.2418 10.474,19.9717 12.9407,22.1793 15.974,22.1793 19.0073,22.1793 21.474,19.9717 21.474,17.2418 21.474,14.5119 19.0073,12.273 15.974,12.273 Z M 28.786,12.273 C 25.7527,12.273 23.286,14.5118 23.286,17.2418 23.286,19.9717 25.7527,22.1793 28.786,22.1793 31.8193,22.1793 34.286,19.9717 34.286,17.2418 34.286,14.5119 31.8193,12.273 28.786,12.273 Z M 14.286,22.711 C 13.79296,22.711 13.411,23.12421 13.411,23.61725 V 35.74225 C 13.411,36.23529 13.79296,36.6485 14.286,36.6485 H 31.567 C 32.06004,36.6485 32.442,36.23529 32.442,35.74225 V 23.61725 C 32.442,23.12421 32.06004,22.711 31.567,22.711 Z M 33.692,26.7422 C 33.19896,26.7422 32.817,27.15541 32.817,27.64845 V 32.27345 C 32.817,32.76649 33.19896,33.14845 33.692,33.14845 H 37.9732 C 38.46624,33.14845 38.8482,32.76649 38.8482,32.27345 V 27.64845 C 38.8482,27.15541 38.46624,26.7422 37.9732,26.7422 Z" />
      <g
         id="g7328">
        <path
           id="path1208"
           d="M 105.18069,24.46 A 21.3765,19.746462 0 1 1 62.427694,24.46 21.3765,19.746462 0 1 1 105.18069,24.46 Z"
           stroke="#000000"
           stroke-width="2.25"
           fill="none" />
        <path
           id="path1210"
           d="M 75.117094,12.27225 C 72.083794,12.27225 69.617094,14.51105 69.617094,17.24105 69.617094,19.97095 72.083794,22.17855 75.117094,22.17855 78.150394,22.17855 80.617094,19.97095 80.617094,17.24105 80.617094,14.51115 78.150394,12.27225 75.117094,12.27225 Z M 87.929094,12.27225 C 84.895794,12.27225 82.429094,14.51105 82.429094,17.24105 82.429094,19.97095 84.895794,22.17855 87.929094,22.17855 90.962394,22.17855 93.429094,19.97095 93.429094,17.24105 93.429094,14.51115 90.962394,12.27225 87.929094,12.27225 Z M 73.429094,22.71025 C 72.936054,22.71025 72.554094,23.12346 72.554094,23.6165 V 35.7415 C 72.554094,36.23454 72.936054,36.64775 73.429094,36.64775 H 90.710094 C 91.203134,36.64775 91.585094,36.23454 91.585094,35.7415 V 23.6165 C 91.585094,23.12346 91.203134,22.71025 90.710094,22.71025 Z M 92.835094,26.74145 C 92.342054,26.74145 91.960094,27.15466 91.960094,27.6477 V 32.2727 C 91.960094,32.76574 92.342054,33.1477 92.835094,33.1477 H 97.116294 C 97.609334,33.1477 97.991294,32.76574 97.991294,32.2727 V 27.6477 C 97.991294,27.15466 97.609334,26.74145 97.116294,26.74145 Z" />
        <path
           style="stroke:#000000;stroke-width:3.51317;stroke-opacity:1;paint-order:fill markers stroke;stop-color:#000000"
           d="M 68.46593,11.002156 97.300311,40.094346"
           id="path1245" />
      </g>
    </g>
    <g
       id="g7328-6"
       transform="matrix(1.2633828,0,0,1.3671111,86.123239,-1.4395356)"
       style="opacity:0.25"
       inkscape:export-filename="/home/maren/Dokumente/m23-Zeug/Kilux/kielux-wa-maps/public/Kitz/tilesets/entry_and_exit.png"
       inkscape:export-xdpi="96"
       inkscape:export-ydpi="96">
      <path
         id="path1208-7"
         d="M 105.18069,24.46 A 21.3765,19.746462 0 1 1 62.427694,24.46 21.3765,19.746462 0 1 1 105.18069,24.46 Z"
         stroke="#000000"
         stroke-width="2.25"
         fill="none" />
      <path
         id="path1210-5"
         d="M 75.117094,12.27225 C 72.083794,12.27225 69.617094,14.51105 69.617094,17.24105 69.617094,19.97095 72.083794,22.17855 75.117094,22.17855 78.150394,22.17855 80.617094,19.97095 80.617094,17.24105 80.617094,14.51115 78.150394,12.27225 75.117094,12.27225 Z M 87.929094,12.27225 C 84.895794,12.27225 82.429094,14.51105 82.429094,17.24105 82.429094,19.97095 84.895794,22.17855 87.929094,22.17855 90.962394,22.17855 93.429094,19.97095 93.429094,17.24105 93.429094,14.51115 90.962394,12.27225 87.929094,12.27225 Z M 73.429094,22.71025 C 72.936054,22.71025 72.554094,23.12346 72.554094,23.6165 V 35.7415 C 72.554094,36.23454 72.936054,36.64775 73.429094,36.64775 H 90.710094 C 91.203134,36.64775 91.585094,36.23454 91.585094,35.7415 V 23.6165 C 91.585094,23.12346 91.203134,22.71025 90.710094,22.71025 Z M 92.835094,26.74145 C 92.342054,26.74145 91.960094,27.15466 91.960094,27.6477 V 32.2727 C 91.960094,32.76574 92.342054,33.1477 92.835094,33.1477 H 97.116294 C 97.609334,33.1477 97.991294,32.76574 97.991294,32.2727 V 27.6477 C 97.991294,27.15466 97.609334,26.74145 97.116294,26.74145 Z" />
      <path
         style="stroke:#000000;stroke-width:3.51317;stroke-opacity:1;paint-order:fill markers stroke;stop-color:#000000"
         d="M 68.46593,11.002156 97.300311,40.094346"
         id="path1245-3" />
    </g>
    <rect
       style="font-variation-settings:normal;vector-effect:none;fill:#ffffff;fill-opacity:1;stroke:none;stroke-width:2.09519;stroke-linecap:butt;stroke-linejoin:miter;stroke-miterlimit:4;stroke-dasharray:none;stroke-dashoffset:0;stroke-opacity:1;-inkscape-stroke:none;paint-order:fill markers stroke;stop-color:#000000"
       id="rect7880-3"
       width="32"
       height="32"
       x="160"
       y="64" />
    <g
       id="g7328-67"
       transform="matrix(0.54827704,0,0,0.5911025,130.47867,65.541633)">
      <path
         id="path1208-5"
         d="M 105.18069,24.46 A 21.3765,19.746462 0 1 1 62.427694,24.46 21.3765,19.746462 0 1 1 105.18069,24.46 Z"
         stroke="#000000"
         stroke-width="2.25"
         fill="none" />
      <path
         d="M 90.998477,18.405443 C 90.196374,18.494788 89.608174,19.152816 89.608174,19.902141 V 25.459957 C 89.608174,25.753337 89.35176,25.991176 89.035463,25.991176 V 25.991176 C 88.71915,25.991176 88.462751,25.753337 88.462751,25.459957 V 14.035908 C 88.462751,13.286583 87.874554,12.628554 87.072451,12.53921 86.116342,12.432703 85.295962,13.130354 85.295962,13.997114 V 25.459974 C 85.295962,25.753354 85.039545,25.991193 84.723249,25.991193 84.406954,25.991193 84.150537,25.753354 84.150537,25.459974 V 12.116879 C 84.150537,11.309113 83.438021,10.648202 82.567143,10.648202 V 10.648202 C 81.696283,10.648202 80.983748,11.309096 80.983748,12.116879 V 25.459957 C 80.983748,25.753337 80.727331,25.991176 80.411036,25.991176 80.09474,25.991176 79.838324,25.753337 79.838324,25.459957 V 14.550121 C 79.838324,13.742355 79.125807,13.081443 78.254929,13.081443 V 13.081443 C 77.384069,13.081443 76.671534,13.742338 76.671534,14.550121 V 30.58334 L 73.691771,27.819461 C 72.915839,27.099728 71.646097,27.099728 70.870165,27.819461 70.094214,28.539176 70.094214,29.716925 70.870165,30.436641 L 75.885197,35.088333 C 76.214783,35.39404 77.932379,38.271798 81.434115,38.271798 H 88.012402 C 90.642701,38.271798 92.774984,36.294 92.774984,33.854267 V 19.863347 C 92.774964,18.996588 91.954583,18.298936 90.998477,18.405443 Z"
         id="path4138"
         style="stroke-width:0.0179263" />
    </g>
  </g>
</svg>
