<?xml version="1.0" encoding="UTF-8" standalone="no"?>
<!-- Created with Inkscape (http://www.inkscape.org/) -->

<svg
   sodipodi:docname="mushrooms.svg"
   inkscape:version="1.1 (1:1.1+202105261517+ce6663b3b7)"
   id="svg5"
   version="1.1"
   viewBox="0 0 42.333336 25.400002"
   height="25.400002mm"
   width="42.333336mm"
   inkscape:export-filename="/home/maren/Dokumente/m23-Zeug/Kilux/kielux-wa-maps/public/Kitz/tilesets/hexenkreise.png"
   inkscape:export-xdpi="96"
   inkscape:export-ydpi="96"
   xmlns:inkscape="http://www.inkscape.org/namespaces/inkscape"
   xmlns:sodipodi="http://sodipodi.sourceforge.net/DTD/sodipodi-0.dtd"
   xmlns:xlink="http://www.w3.org/1999/xlink"
   xmlns="http://www.w3.org/2000/svg"
   xmlns:svg="http://www.w3.org/2000/svg">
  <sodipodi:namedview
     id="namedview7"
     pagecolor="#ffffff"
     bordercolor="#666666"
     borderopacity="1.0"
     inkscape:pageshadow="2"
     inkscape:pageopacity="0.0"
     inkscape:pagecheckerboard="0"
     inkscape:document-units="mm"
     showgrid="false"
     inkscape:zoom="4.7464704"
     inkscape:cx="59.833935"
     inkscape:cy="52.14401"
     inkscape:window-width="1920"
     inkscape:window-height="1133"
     inkscape:window-x="0"
     inkscape:window-y="0"
     inkscape:window-maximized="1"
     inkscape:current-layer="g6121" />
  <defs
     id="defs2">
    <linearGradient
       inkscape:collect="always"
       id="linearGradient4145">
      <stop
         style="stop-color:#21180e;stop-opacity:1"
         offset="0"
         id="stop4137" />
      <stop
         style="stop-color:#9d783f;stop-opacity:1"
         offset="0.39074615"
         id="stop4139" />
      <stop
         style="stop-color:#d4aa6b;stop-opacity:1"
         offset="0.77593958"
         id="stop4141" />
      <stop
         style="stop-color:#fbe8cb;stop-opacity:1"
         offset="1"
         id="stop4143" />
    </linearGradient>
    <linearGradient
       inkscape:collect="always"
       id="linearGradient4135">
      <stop
         style="stop-color:#291e12;stop-opacity:1"
         offset="0"
         id="stop4127" />
      <stop
         style="stop-color:#c1944e;stop-opacity:1"
         offset="0.39074615"
         id="stop4129" />
      <stop
         style="stop-color:#ffd284;stop-opacity:1"
         offset="0.77593958"
         id="stop4131" />
      <stop
         style="stop-color:#fffffb;stop-opacity:1"
         offset="1"
         id="stop4133" />
    </linearGradient>
    <linearGradient
       inkscape:collect="always"
       id="linearGradient3819">
      <stop
         style="stop-color:#1e160d;stop-opacity:1"
         offset="0"
         id="stop3811" />
      <stop
         style="stop-color:#8d6c39;stop-opacity:1"
         offset="0.39074615"
         id="stop3813" />
      <stop
         style="stop-color:#bf9960;stop-opacity:1"
         offset="0.77593958"
         id="stop3815" />
      <stop
         style="stop-color:#e2d1b7;stop-opacity:1"
         offset="1"
         id="stop3817" />
    </linearGradient>
    <linearGradient
       inkscape:collect="always"
       id="linearGradient3666">
      <stop
         style="stop-color:#291e12;stop-opacity:1"
         offset="0"
         id="stop3658" />
      <stop
         style="stop-color:#c1944e;stop-opacity:1"
         offset="0.39074615"
         id="stop3660" />
      <stop
         style="stop-color:#ffd284;stop-opacity:1"
         offset="0.77593958"
         id="stop3662" />
      <stop
         style="stop-color:#fffffb;stop-opacity:1"
         offset="1"
         id="stop3664" />
    </linearGradient>
    <linearGradient
       inkscape:collect="always"
       id="linearGradient1543">
      <stop
         style="stop-color:#1e160d;stop-opacity:1"
         offset="0"
         id="stop1539" />
      <stop
         style="stop-color:#8d6c39;stop-opacity:1"
         offset="0.39074615"
         id="stop1696" />
      <stop
         style="stop-color:#bf9960;stop-opacity:1"
         offset="0.77593958"
         id="stop1694" />
      <stop
         style="stop-color:#e2d1b7;stop-opacity:1"
         offset="1"
         id="stop1541" />
    </linearGradient>
    <radialGradient
       inkscape:collect="always"
       xlink:href="#linearGradient9754"
       id="radialGradient1545"
       cx="55.305603"
       cy="39.469688"
       fx="55.305603"
       fy="39.469688"
       r="0.5548507"
       gradientUnits="userSpaceOnUse"
       gradientTransform="matrix(1.0000015,0,0,1,-6.9203934,-7.6107596)" />
    <radialGradient
       inkscape:collect="always"
       xlink:href="#linearGradient1543"
       id="radialGradient2787"
       gradientUnits="userSpaceOnUse"
       gradientTransform="matrix(1.3080342,0,0,1.3080322,-13.575785,-22.02018)"
       cx="55.305603"
       cy="39.469688"
       fx="55.305603"
       fy="39.469688"
       r="0.5548507" />
    <radialGradient
       inkscape:collect="always"
       xlink:href="#linearGradient1379"
       id="radialGradient2791"
       gradientUnits="userSpaceOnUse"
       gradientTransform="matrix(0.71491327,0,0,0.7149122,20.881374,0.31404829)"
       cx="55.305603"
       cy="39.469688"
       fx="55.305603"
       fy="39.469688"
       r="0.5548507" />
    <radialGradient
       inkscape:collect="always"
       xlink:href="#linearGradient1543"
       id="radialGradient2795"
       gradientUnits="userSpaceOnUse"
       gradientTransform="matrix(1.0985547,0,0,1.0985531,2.5305358,-10.64401)"
       cx="55.305603"
       cy="39.469688"
       fx="55.305603"
       fy="39.469688"
       r="0.5548507" />
    <radialGradient
       inkscape:collect="always"
       xlink:href="#linearGradient1543"
       id="radialGradient2799"
       gradientUnits="userSpaceOnUse"
       gradientTransform="matrix(1.2957913,0,0,1.2957894,-7.5345511,-16.087893)"
       cx="55.305603"
       cy="39.469688"
       fx="55.305603"
       fy="39.469688"
       r="0.5548507" />
    <radialGradient
       inkscape:collect="always"
       xlink:href="#linearGradient1379"
       id="radialGradient2803"
       gradientUnits="userSpaceOnUse"
       gradientTransform="matrix(0.79568738,0,0,0.79568619,21.898734,3.6164761)"
       cx="55.305603"
       cy="39.469688"
       fx="55.305603"
       fy="39.469688"
       r="0.5548507" />
    <radialGradient
       inkscape:collect="always"
       xlink:href="#linearGradient9754"
       id="radialGradient2807"
       gradientUnits="userSpaceOnUse"
       gradientTransform="matrix(0.93179839,0,0,0.93179699,14.291163,0.29534344)"
       cx="55.305603"
       cy="39.469688"
       fx="55.305603"
       fy="39.469688"
       r="0.5548507" />
    <radialGradient
       inkscape:collect="always"
       xlink:href="#linearGradient1379"
       id="radialGradient2811"
       gradientUnits="userSpaceOnUse"
       gradientTransform="matrix(0.85535116,0,0,0.85534988,16.462535,5.7175784)"
       cx="55.305603"
       cy="39.469688"
       fx="55.305603"
       fy="39.469688"
       r="0.5548507" />
    <radialGradient
       inkscape:collect="always"
       xlink:href="#linearGradient1543"
       id="radialGradient2815"
       gradientUnits="userSpaceOnUse"
       gradientTransform="matrix(1.309111,0,0,1.309109,-8.2892994,-9.9143765)"
       cx="55.305603"
       cy="39.469688"
       fx="55.305603"
       fy="39.469688"
       r="0.5548507" />
    <radialGradient
       inkscape:collect="always"
       xlink:href="#linearGradient1543"
       id="radialGradient2819"
       gradientUnits="userSpaceOnUse"
       gradientTransform="matrix(1.1886849,0,0,1.1886831,-1.9005756,-3.0644545)"
       cx="55.305603"
       cy="39.469688"
       fx="55.305603"
       fy="39.469688"
       r="0.5548507" />
    <radialGradient
       inkscape:collect="always"
       xlink:href="#linearGradient1379"
       id="radialGradient2823"
       gradientUnits="userSpaceOnUse"
       gradientTransform="matrix(0.79734395,0,0,0.79734275,18.557493,14.443361)"
       cx="55.305603"
       cy="39.469688"
       fx="55.305603"
       fy="39.469688"
       r="0.5548507" />
    <radialGradient
       inkscape:collect="always"
       xlink:href="#linearGradient1543"
       id="radialGradient2827"
       gradientUnits="userSpaceOnUse"
       gradientTransform="matrix(1.0215652,0,0,1.0215637,2.7951575,8.5038939)"
       cx="55.305603"
       cy="39.469688"
       fx="55.305603"
       fy="39.469688"
       r="0.5548507" />
    <radialGradient
       inkscape:collect="always"
       xlink:href="#linearGradient1543"
       id="radialGradient2831"
       gradientUnits="userSpaceOnUse"
       gradientTransform="matrix(1.2025245,0,0,1.2025227,-14.922739,0.38722645)"
       cx="55.305603"
       cy="39.469688"
       fx="55.305603"
       fy="39.469688"
       r="0.5548507" />
    <radialGradient
       inkscape:collect="always"
       xlink:href="#linearGradient1543"
       id="radialGradient2835"
       gradientUnits="userSpaceOnUse"
       gradientTransform="matrix(1.1246302,0,0,1.1246285,-12.049359,2.2673536)"
       cx="55.305603"
       cy="39.469688"
       fx="55.305603"
       fy="39.469688"
       r="0.5548507" />
    <radialGradient
       inkscape:collect="always"
       xlink:href="#linearGradient9754"
       id="radialGradient2839"
       gradientUnits="userSpaceOnUse"
       gradientTransform="matrix(0.98649871,0,0,0.98649723,-6.1670366,7.3889009)"
       cx="55.305603"
       cy="39.469688"
       fx="55.305603"
       fy="39.469688"
       r="0.5548507" />
    <radialGradient
       inkscape:collect="always"
       xlink:href="#linearGradient1379"
       id="radialGradient2843"
       gradientUnits="userSpaceOnUse"
       gradientTransform="matrix(0.87174723,0,0,0.87174592,-2.2003508,5.8703534)"
       cx="55.305603"
       cy="39.469688"
       fx="55.305603"
       fy="39.469688"
       r="0.5548507" />
    <radialGradient
       inkscape:collect="always"
       xlink:href="#linearGradient1379"
       id="radialGradient2847"
       gradientUnits="userSpaceOnUse"
       gradientTransform="matrix(0.85109237,0,0,0.85109109,-1.9190114,4.7438891)"
       cx="55.305603"
       cy="39.469688"
       fx="55.305603"
       fy="39.469688"
       r="0.5548507" />
    <radialGradient
       inkscape:collect="always"
       xlink:href="#linearGradient9754"
       id="radialGradient2851"
       gradientUnits="userSpaceOnUse"
       gradientTransform="matrix(0.89152255,0,0,0.89152121,-4.1845816,-0.26556571)"
       cx="55.305603"
       cy="39.469688"
       fx="55.305603"
       fy="39.469688"
       r="0.5548507" />
    <radialGradient
       inkscape:collect="always"
       xlink:href="#linearGradient3819"
       id="radialGradient2855"
       gradientUnits="userSpaceOnUse"
       gradientTransform="matrix(1.1588884,0,0,1.1588867,-13.408695,-17.454893)"
       cx="55.305603"
       cy="39.469688"
       fx="55.305603"
       fy="39.469688"
       r="0.5548507" />
    <radialGradient
       inkscape:collect="always"
       xlink:href="#linearGradient3666"
       id="radialGradient2859"
       gradientUnits="userSpaceOnUse"
       gradientTransform="matrix(0.74626884,0,0,0.74626772,10.210225,0.49676777)"
       cx="55.305603"
       cy="39.469688"
       fx="55.305603"
       fy="39.469688"
       r="0.5548507" />
    <radialGradient
       inkscape:collect="always"
       xlink:href="#linearGradient4145"
       id="radialGradient2863"
       gradientUnits="userSpaceOnUse"
       gradientTransform="matrix(0.99973733,0,0,0.99973583,-0.0042617,-10.864371)"
       cx="55.305603"
       cy="39.469688"
       fx="55.305603"
       fy="39.469688"
       r="0.5548507" />
    <radialGradient
       inkscape:collect="always"
       xlink:href="#linearGradient4135"
       id="radialGradient2867"
       gradientUnits="userSpaceOnUse"
       gradientTransform="matrix(0.83761986,0,0,0.8376186,8.508147,-3.0829336)"
       cx="55.305603"
       cy="39.469688"
       fx="55.305603"
       fy="39.469688"
       r="0.5548507" />
    <radialGradient
       inkscape:collect="always"
       xlink:href="#linearGradient1379"
       id="radialGradient2871"
       gradientUnits="userSpaceOnUse"
       gradientTransform="matrix(0.78852421,0,0,0.78852303,10.51485,-2.7337135)"
       cx="55.305603"
       cy="39.469688"
       fx="55.305603"
       fy="39.469688"
       r="0.5548507" />
    <radialGradient
       inkscape:collect="always"
       xlink:href="#linearGradient1543"
       id="radialGradient2875"
       gradientUnits="userSpaceOnUse"
       gradientTransform="matrix(1.1102447,0,0,1.110243,-5.7482642,5.9410115)"
       cx="55.305603"
       cy="39.469688"
       fx="55.305603"
       fy="39.469688"
       r="0.5548507" />
    <radialGradient
       inkscape:collect="always"
       xlink:href="#linearGradient1543"
       id="radialGradient2879"
       gradientUnits="userSpaceOnUse"
       gradientTransform="matrix(1.1446893,0,0,1.1446876,-7.7495154,2.6507219)"
       cx="55.305603"
       cy="39.469688"
       fx="55.305603"
       fy="39.469688"
       r="0.5548507" />
    <radialGradient
       inkscape:collect="always"
       xlink:href="#linearGradient1543"
       id="radialGradient2883"
       gradientUnits="userSpaceOnUse"
       gradientTransform="matrix(1.0866208,0,0,1.0866192,-14.511918,-1.3043121)"
       cx="55.305603"
       cy="39.469688"
       fx="55.305603"
       fy="39.469688"
       r="0.5548507" />
    <radialGradient
       inkscape:collect="always"
       xlink:href="#linearGradient1379"
       id="radialGradient2887"
       gradientUnits="userSpaceOnUse"
       gradientTransform="matrix(0.82264098,0,0,0.82263975,1.9140485,11.076072)"
       cx="55.305603"
       cy="39.469688"
       fx="55.305603"
       fy="39.469688"
       r="0.5548507" />
    <linearGradient
       inkscape:collect="always"
       id="linearGradient1379">
      <stop
         style="stop-color:#291e12;stop-opacity:1"
         offset="0"
         id="stop4680" />
      <stop
         style="stop-color:#c1944e;stop-opacity:1"
         offset="0.39074615"
         id="stop4682" />
      <stop
         style="stop-color:#ffd284;stop-opacity:1"
         offset="0.77593958"
         id="stop4684" />
      <stop
         style="stop-color:#fffffb;stop-opacity:1"
         offset="1"
         id="stop4686" />
    </linearGradient>
    <linearGradient
       inkscape:collect="always"
       id="linearGradient9754">
      <stop
         style="stop-color:#21180e;stop-opacity:1"
         offset="0"
         id="stop5415" />
      <stop
         style="stop-color:#9d783f;stop-opacity:1"
         offset="0.39074615"
         id="stop5417" />
      <stop
         style="stop-color:#d4aa6b;stop-opacity:1"
         offset="0.77593958"
         id="stop5419" />
      <stop
         style="stop-color:#fbe8cb;stop-opacity:1"
         offset="1"
         id="stop5421" />
    </linearGradient>
    <radialGradient
       inkscape:collect="always"
       xlink:href="#linearGradient6863"
       id="radialGradient6123"
       gradientUnits="userSpaceOnUse"
       gradientTransform="matrix(0.72186515,0,0,0.72186407,6.5913767,1.2878347)"
       cx="55.305603"
       cy="39.469688"
       fx="55.305603"
       fy="39.469688"
       r="0.5548507" />
    <radialGradient
       inkscape:collect="always"
       xlink:href="#linearGradient6863"
       id="radialGradient7455"
       gradientUnits="userSpaceOnUse"
       gradientTransform="matrix(0.79395833,0,0,0.79395714,6.7421984,-3.8175021)"
       cx="55.305603"
       cy="39.469688"
       fx="55.305603"
       fy="39.469688"
       r="0.5548507" />
    <radialGradient
       inkscape:collect="always"
       xlink:href="#linearGradient6863"
       id="radialGradient7459"
       gradientUnits="userSpaceOnUse"
       gradientTransform="matrix(0.92200876,0,0,0.92200738,2.0606779,-9.2062683)"
       cx="55.305603"
       cy="39.469688"
       fx="55.305603"
       fy="39.469688"
       r="0.5548507" />
    <radialGradient
       inkscape:collect="always"
       xlink:href="#linearGradient2300"
       id="radialGradient7463"
       gradientUnits="userSpaceOnUse"
       gradientTransform="matrix(0.60207901,0,0,0.60207811,22.275227,4.5127141)"
       cx="55.305603"
       cy="39.469688"
       fx="55.305603"
       fy="39.469688"
       r="0.5548507" />
    <radialGradient
       inkscape:collect="always"
       xlink:href="#linearGradient6863"
       id="radialGradient7467"
       gradientUnits="userSpaceOnUse"
       gradientTransform="matrix(0.89952194,0,0,0.89952059,8.9828345,0.61047623)"
       cx="55.305603"
       cy="39.469688"
       fx="55.305603"
       fy="39.469688"
       r="0.5548507" />
    <radialGradient
       inkscape:collect="always"
       xlink:href="#linearGradient2300"
       id="radialGradient7471"
       gradientUnits="userSpaceOnUse"
       gradientTransform="matrix(0.54417845,0,0,0.54417763,27.590504,16.90077)"
       cx="55.305603"
       cy="39.469688"
       fx="55.305603"
       fy="39.469688"
       r="0.5548507" />
    <radialGradient
       inkscape:collect="always"
       xlink:href="#linearGradient6863"
       id="radialGradient7475"
       gradientUnits="userSpaceOnUse"
       gradientTransform="matrix(0.67348541,0,0,0.6734844,16.937587,13.55853)"
       cx="55.305603"
       cy="39.469688"
       fx="55.305603"
       fy="39.469688"
       r="0.5548507" />
    <radialGradient
       inkscape:collect="always"
       xlink:href="#linearGradient6863"
       id="radialGradient7479"
       gradientUnits="userSpaceOnUse"
       gradientTransform="matrix(0.71682449,0,0,0.71682342,5.6203122,9.2304841)"
       cx="55.305603"
       cy="39.469688"
       fx="55.305603"
       fy="39.469688"
       r="0.5548507" />
    <radialGradient
       inkscape:collect="always"
       xlink:href="#linearGradient6863"
       id="radialGradient7483"
       gradientUnits="userSpaceOnUse"
       gradientTransform="matrix(0.92363671,0,0,0.92363533,-5.9119663,-3.016807)"
       cx="55.305603"
       cy="39.469688"
       fx="55.305603"
       fy="39.469688"
       r="0.5548507" />
    <radialGradient
       inkscape:collect="always"
       xlink:href="#linearGradient6863"
       id="radialGradient7487"
       gradientUnits="userSpaceOnUse"
       gradientTransform="matrix(0.87957984,0,0,0.87957852,-4.3433065,-2.8921086)"
       cx="55.305603"
       cy="39.469688"
       fx="55.305603"
       fy="39.469688"
       r="0.5548507" />
    <radialGradient
       inkscape:collect="always"
       xlink:href="#linearGradient6863"
       id="radialGradient7491"
       gradientUnits="userSpaceOnUse"
       gradientTransform="matrix(0.93688034,0,0,0.93687894,-2.7474063,4.1388033)"
       cx="55.305603"
       cy="39.469688"
       fx="55.305603"
       fy="39.469688"
       r="0.5548507" />
    <radialGradient
       inkscape:collect="always"
       xlink:href="#linearGradient6863"
       id="radialGradient7495"
       gradientUnits="userSpaceOnUse"
       gradientTransform="matrix(0.93294697,0,0,0.93294557,5.00616,-5.1289077)"
       cx="55.305603"
       cy="39.469688"
       fx="55.305603"
       fy="39.469688"
       r="0.5548507" />
    <radialGradient
       inkscape:collect="always"
       xlink:href="#linearGradient6863"
       id="radialGradient7499"
       gradientUnits="userSpaceOnUse"
       gradientTransform="matrix(0.66417337,0,0,0.66417238,21.723585,5.8113299)"
       cx="55.305603"
       cy="39.469688"
       fx="55.305603"
       fy="39.469688"
       r="0.5548507" />
    <radialGradient
       inkscape:collect="always"
       xlink:href="#linearGradient6863"
       id="radialGradient7503"
       gradientUnits="userSpaceOnUse"
       gradientTransform="matrix(0.86874132,0,0,0.86874002,-3.8746057,0.80855477)"
       cx="55.305603"
       cy="39.469688"
       fx="55.305603"
       fy="39.469688"
       r="0.5548507" />
    <radialGradient
       inkscape:collect="always"
       xlink:href="#linearGradient2300"
       id="radialGradient7511"
       gradientUnits="userSpaceOnUse"
       gradientTransform="matrix(0.58144012,0,0,0.58143925,20.696081,17.726443)"
       cx="55.305603"
       cy="39.469688"
       fx="55.305603"
       fy="39.469688"
       r="0.5548507" />
    <radialGradient
       inkscape:collect="always"
       xlink:href="#linearGradient2300"
       id="radialGradient7515"
       gradientUnits="userSpaceOnUse"
       gradientTransform="matrix(0.61340389,0,0,0.61340297,14.583275,3.5797567)"
       cx="55.305603"
       cy="39.469688"
       fx="55.305603"
       fy="39.469688"
       r="0.5548507" />
    <radialGradient
       inkscape:collect="always"
       xlink:href="#linearGradient2300"
       id="radialGradient7519"
       gradientUnits="userSpaceOnUse"
       gradientTransform="matrix(0.52693375,0,0,0.52693296,25.703444,20.047411)"
       cx="55.305603"
       cy="39.469688"
       fx="55.305603"
       fy="39.469688"
       r="0.5548507" />
    <radialGradient
       inkscape:collect="always"
       xlink:href="#linearGradient2300"
       id="radialGradient7523"
       gradientUnits="userSpaceOnUse"
       gradientTransform="matrix(0.53744588,0,0,0.53744507,27.509091,18.943317)"
       cx="55.305603"
       cy="39.469688"
       fx="55.305603"
       fy="39.469688"
       r="0.5548507" />
    <radialGradient
       inkscape:collect="always"
       xlink:href="#linearGradient2300"
       id="radialGradient7527"
       gradientUnits="userSpaceOnUse"
       gradientTransform="matrix(0.60265653,0,0,0.60265563,13.184437,16.125372)"
       cx="55.305603"
       cy="39.469688"
       fx="55.305603"
       fy="39.469688"
       r="0.5548507" />
    <radialGradient
       inkscape:collect="always"
       xlink:href="#linearGradient6863"
       id="radialGradient7531"
       gradientUnits="userSpaceOnUse"
       gradientTransform="matrix(0.64774044,0,0,0.64773947,23.367549,8.312485)"
       cx="55.305603"
       cy="39.469688"
       fx="55.305603"
       fy="39.469688"
       r="0.5548507" />
    <radialGradient
       inkscape:collect="always"
       xlink:href="#linearGradient6863"
       id="radialGradient7535"
       gradientUnits="userSpaceOnUse"
       gradientTransform="matrix(0.71109582,0,0,0.71109475,18.274604,4.5358589)"
       cx="55.305603"
       cy="39.469688"
       fx="55.305603"
       fy="39.469688"
       r="0.5548507" />
    <radialGradient
       inkscape:collect="always"
       xlink:href="#linearGradient2300"
       id="radialGradient7539"
       gradientUnits="userSpaceOnUse"
       gradientTransform="matrix(0.50704089,0,0,0.50704013,29.728957,11.030179)"
       cx="55.305603"
       cy="39.469688"
       fx="55.305603"
       fy="39.469688"
       r="0.5548507" />
    <radialGradient
       inkscape:collect="always"
       xlink:href="#linearGradient6863"
       id="radialGradient7543"
       gradientUnits="userSpaceOnUse"
       gradientTransform="matrix(0.73857128,0,0,0.73857017,15.784965,0.41036907)"
       cx="55.305603"
       cy="39.469688"
       fx="55.305603"
       fy="39.469688"
       r="0.5548507" />
    <radialGradient
       inkscape:collect="always"
       xlink:href="#linearGradient6863"
       id="radialGradient7547"
       gradientUnits="userSpaceOnUse"
       gradientTransform="matrix(0.78298201,0,0,0.78298084,7.5665001,10.308704)"
       cx="55.305603"
       cy="39.469688"
       fx="55.305603"
       fy="39.469688"
       r="0.5548507" />
    <radialGradient
       inkscape:collect="always"
       xlink:href="#linearGradient2300"
       id="radialGradient7551"
       gradientUnits="userSpaceOnUse"
       gradientTransform="matrix(0.5069274,0,0,0.50692665,26.779931,9.4228919)"
       cx="55.305603"
       cy="39.469688"
       fx="55.305603"
       fy="39.469688"
       r="0.5548507" />
    <linearGradient
       inkscape:collect="always"
       id="linearGradient6863">
      <stop
         style="stop-color:#251b10;stop-opacity:1"
         offset="0"
         id="stop8041" />
      <stop
         style="stop-color:#ae8546;stop-opacity:1"
         offset="0.39074615"
         id="stop8043" />
      <stop
         style="stop-color:#ecbd77;stop-opacity:1"
         offset="0.77593958"
         id="stop8045" />
      <stop
         style="stop-color:#ffffe2;stop-opacity:1"
         offset="1"
         id="stop8047" />
    </linearGradient>
    <linearGradient
       inkscape:collect="always"
       id="linearGradient2300">
      <stop
         style="stop-color:#2e2114;stop-opacity:1"
         offset="0"
         id="stop8453" />
      <stop
         style="stop-color:#d6a457;stop-opacity:1"
         offset="0.39074615"
         id="stop8455" />
      <stop
         style="stop-color:#ffe993;stop-opacity:1"
         offset="0.77593958"
         id="stop8457" />
      <stop
         style="stop-color:#ffffff;stop-opacity:1"
         offset="1"
         id="stop8459" />
    </linearGradient>
  </defs>
  <g
     inkscape:label="Ebene 1"
     inkscape:groupmode="layer"
     id="layer1">
    <g
       id="g9061"
       inkscape:export-filename="/home/maren/Dokumente/m23-Zeug/Kilux/kielux-wa-maps/tileset_making/hexenkreise_aa.png"
       inkscape:export-xdpi="96"
       inkscape:export-ydpi="96"
       transform="translate(-6.4930651,-6.3816906)">
      <g
         id="g5723"
         transform="translate(-36.580879,-19.560532)">
        <g
           id="g138"
           style="fill:none;fill-opacity:1">
          <rect
             style="fill:none;fill-opacity:1;stroke-width:2.76598;paint-order:stroke markers fill;stop-color:#000000"
             id="rect113"
             width="8.4666662"
             height="8.4666662"
             x="43.073944"
             y="25.942223" />
          <rect
             style="fill:none;fill-opacity:1;stroke-width:2.76598;paint-order:stroke markers fill;stop-color:#000000"
             id="rect115"
             width="8.4666662"
             height="8.4666662"
             x="51.540611"
             y="25.942225" />
          <rect
             style="fill:none;fill-opacity:1;stroke-width:2.76598;paint-order:stroke markers fill;stop-color:#000000"
             id="rect117"
             width="8.4666662"
             height="8.4666662"
             x="60.007278"
             y="25.942225" />
          <rect
             style="fill:none;fill-opacity:1;stroke-width:2.76598;paint-order:stroke markers fill;stop-color:#000000"
             id="rect119"
             width="8.4666662"
             height="8.4666662"
             x="60.007278"
             y="34.40889" />
          <rect
             style="fill:none;fill-opacity:1;stroke-width:2.76598;paint-order:stroke markers fill;stop-color:#000000"
             id="rect121"
             width="8.4666662"
             height="8.4666662"
             x="60.007278"
             y="42.875557" />
          <rect
             style="fill:none;fill-opacity:1;stroke-width:2.76598;paint-order:stroke markers fill;stop-color:#000000"
             id="rect123"
             width="8.4666662"
             height="8.4666662"
             x="51.540611"
             y="42.875557" />
          <rect
             style="fill:none;fill-opacity:1;stroke-width:2.76598;paint-order:stroke markers fill;stop-color:#000000"
             id="rect125"
             width="8.4666662"
             height="8.4666662"
             x="43.073944"
             y="42.875557" />
          <rect
             style="fill:none;fill-opacity:1;stroke-width:2.76598;paint-order:stroke markers fill;stop-color:#000000"
             id="rect127"
             width="8.4666662"
             height="8.4666662"
             x="43.073944"
             y="34.408894" />
          <rect
             style="fill:none;fill-opacity:1;stroke-width:2.76598;paint-order:stroke markers fill;stop-color:#000000"
             id="rect31"
             width="8.4666662"
             height="8.4666662"
             x="51.540611"
             y="34.408894" />
        </g>
        <g
           id="g9306"
           transform="matrix(1,0,0,0.92012049,0,4.0241681)">
          <circle
             style="fill:url(#radialGradient1545);fill-opacity:1;stroke:none;stroke-width:5.45375;paint-order:stroke markers fill;stop-color:#0a0a0a"
             id="path1193"
             cx="48.385292"
             cy="31.858929"
             r="0.5548507" />
          <circle
             style="fill:url(#radialGradient2787);fill-opacity:1;stroke:none;stroke-width:7.13368;paint-order:stroke markers fill;stop-color:#000000"
             id="circle2785"
             cx="58.765831"
             cy="29.607443"
             r="0.72576255"
             inkscape:spray-origin="#path1193" />
          <circle
             style="fill:url(#radialGradient2791);fill-opacity:1;stroke:none;stroke-width:3.89895;paint-order:stroke markers fill;stop-color:#0c0c0c"
             id="circle2789"
             cx="60.420082"
             cy="28.53141"
             r="0.39666954"
             inkscape:spray-origin="#path1193" />
          <circle
             style="fill:url(#radialGradient2795);fill-opacity:1;stroke:none;stroke-width:5.99123;paint-order:stroke markers fill;stop-color:#000000"
             id="circle2793"
             cx="63.286766"
             cy="32.715538"
             r="0.60953295"
             inkscape:spray-origin="#path1193" />
          <circle
             style="fill:url(#radialGradient2799);fill-opacity:1;stroke:none;stroke-width:7.06691;paint-order:stroke markers fill;stop-color:#000000"
             id="circle2797"
             cx="64.129967"
             cy="35.056511"
             r="0.71896964"
             inkscape:spray-origin="#path1193" />
          <circle
             style="fill:url(#radialGradient2803);fill-opacity:1;stroke:none;stroke-width:4.33947;paint-order:stroke markers fill;stop-color:#0c0c0c"
             id="circle2801"
             cx="65.904701"
             cy="35.021961"
             r="0.44148704"
             inkscape:spray-origin="#path1193" />
          <circle
             style="fill:url(#radialGradient2807);fill-opacity:1;stroke:none;stroke-width:5.08179;paint-order:stroke markers fill;stop-color:#0a0a0a"
             id="circle2805"
             cx="65.824837"
             cy="37.073082"
             r="0.51700819"
             inkscape:spray-origin="#path1193" />
          <circle
             style="fill:url(#radialGradient2811);fill-opacity:1;stroke:none;stroke-width:4.66486;paint-order:stroke markers fill;stop-color:#0c0c0c"
             id="circle2809"
             cx="63.768246"
             cy="39.47797"
             r="0.47459146"
             inkscape:spray-origin="#path1193" />
          <circle
             style="fill:url(#radialGradient2815);fill-opacity:1;stroke:none;stroke-width:7.13955;paint-order:stroke markers fill;stop-color:#000000"
             id="circle2813"
             cx="64.11187"
             cy="41.755745"
             r="0.72636002"
             inkscape:spray-origin="#path1193" />
          <circle
             style="fill:url(#radialGradient2819);fill-opacity:1;stroke:none;stroke-width:6.48278;paint-order:stroke markers fill;stop-color:#000000"
             id="circle2817"
             cx="63.840359"
             cy="43.852497"
             r="0.65954167"
             inkscape:spray-origin="#path1193" />
          <circle
             style="fill:url(#radialGradient2823);fill-opacity:1;stroke:none;stroke-width:4.34851;paint-order:stroke markers fill;stop-color:#0c0c0c"
             id="circle2821"
             cx="62.655083"
             cy="45.91423"
             r="0.44240618"
             inkscape:spray-origin="#path1193" />
          <circle
             style="fill:url(#radialGradient2827);fill-opacity:1;stroke:none;stroke-width:5.57135;paint-order:stroke markers fill;stop-color:#000000"
             id="circle2825"
             cx="59.293438"
             cy="48.824692"
             r="0.56681532"
             inkscape:spray-origin="#path1193" />
          <circle
             style="fill:url(#radialGradient2831);fill-opacity:1;stroke:none;stroke-width:6.55826;paint-order:stroke markers fill;stop-color:#000000"
             id="circle2829"
             cx="51.583603"
             cy="47.850422"
             r="0.66722053"
             inkscape:spray-origin="#path1193" />
          <circle
             style="fill:url(#radialGradient2835);fill-opacity:1;stroke:none;stroke-width:6.13344;paint-order:stroke markers fill;stop-color:#000000"
             id="circle2833"
             cx="50.148994"
             cy="46.65609"
             r="0.62400091"
             inkscape:spray-origin="#path1193" />
          <circle
             style="fill:url(#radialGradient2839);fill-opacity:1;stroke:none;stroke-width:5.38011;paint-order:stroke markers fill;stop-color:#0a0a0a"
             id="circle2837"
             cx="48.391869"
             cy="46.325638"
             r="0.54735869"
             inkscape:spray-origin="#path1193" />
          <circle
             style="fill:url(#radialGradient2843);fill-opacity:1;stroke:none;stroke-width:4.75428;paint-order:stroke markers fill;stop-color:#0c0c0c"
             id="circle2841"
             cx="46.012154"
             cy="40.277893"
             r="0.48368883"
             inkscape:spray-origin="#path1193" />
          <circle
             style="fill:url(#radialGradient2847);fill-opacity:1;stroke:none;stroke-width:4.64164;paint-order:stroke markers fill;stop-color:#0c0c0c"
             id="circle2845"
             cx="45.151165"
             cy="38.336189"
             r="0.4722285"
             inkscape:spray-origin="#path1193" />
          <circle
             style="fill:url(#radialGradient2851);fill-opacity:1;stroke:none;stroke-width:4.86213;paint-order:stroke markers fill;stop-color:#0a0a0a"
             id="circle2849"
             cx="45.121609"
             cy="34.922497"
             r="0.49466115"
             inkscape:spray-origin="#path1193" />
          <circle
             style="fill:url(#radialGradient2855);fill-opacity:1;stroke:none;stroke-width:6.32028;paint-order:stroke markers fill;stop-color:#000000"
             id="circle2853"
             cx="50.68433"
             cy="28.286003"
             r="0.64300913"
             inkscape:spray-origin="#path1193" />
          <circle
             style="fill:url(#radialGradient2859);fill-opacity:1;stroke:none;stroke-width:4.06996;paint-order:stroke markers fill;stop-color:#0c0c0c"
             id="circle2857"
             inkscape:spray-origin="#path1193"
             r="0.41406718"
             cy="29.951721"
             cx="51.483074" />
          <circle
             style="fill:url(#radialGradient2863);fill-opacity:1;stroke:none;stroke-width:5.45231;paint-order:stroke markers fill;stop-color:#0a0a0a"
             id="circle2861"
             cx="55.286816"
             cy="28.594891"
             r="0.55470413"
             inkscape:spray-origin="#path1193" />
          <circle
             style="fill:url(#radialGradient2867);fill-opacity:1;stroke:none;stroke-width:4.56816;paint-order:stroke markers fill;stop-color:#0c0c0c"
             id="circle2865"
             cx="54.833218"
             cy="29.977612"
             r="0.46475327"
             inkscape:spray-origin="#path1193" />
          <circle
             style="fill:url(#radialGradient2871);fill-opacity:1;stroke:none;stroke-width:4.30041;paint-order:stroke markers fill;stop-color:#0c0c0c"
             id="circle2869"
             cx="54.124657"
             cy="28.389044"
             r="0.43751255"
             inkscape:spray-origin="#path1193" />
          <circle
             style="fill:url(#radialGradient2875);fill-opacity:1;stroke:none;stroke-width:6.05499;paint-order:stroke markers fill;stop-color:#000000"
             id="circle2873"
             cx="55.654484"
             cy="49.761955"
             r="0.61601907"
             inkscape:spray-origin="#path1193" />
          <circle
             style="fill:url(#radialGradient2879);fill-opacity:1;stroke:none;stroke-width:6.24284;paint-order:stroke markers fill;stop-color:#000000"
             id="circle2877"
             cx="55.558216"
             cy="47.831184"
             r="0.6351307"
             inkscape:spray-origin="#path1193" />
          <circle
             style="fill:url(#radialGradient2883);fill-opacity:1;stroke:none;stroke-width:5.92615;paint-order:stroke markers fill;stop-color:#000000"
             id="circle2881"
             cx="45.584301"
             cy="41.584209"
             r="0.60291141"
             inkscape:spray-origin="#path1193" />
          <circle
             style="fill:url(#radialGradient2887);fill-opacity:1;stroke:none;stroke-width:4.48647;paint-order:stroke markers fill;stop-color:#0c0c0c"
             id="circle2885"
             cx="47.410706"
             cy="43.545406"
             r="0.45644224"
             inkscape:spray-origin="#path1193" />
        </g>
      </g>
      <g
         id="g6121"
         transform="translate(-11.180877,-19.560532)">
        <g
           id="g6065"
           style="fill:none;fill-opacity:1">
          <rect
             style="fill:none;fill-opacity:1;stroke-width:2.76598;paint-order:stroke markers fill;stop-color:#000000"
             id="rect6047"
             width="8.4666662"
             height="8.4666662"
             x="43.073944"
             y="25.942223" />
          <rect
             style="fill:none;fill-opacity:1;stroke-width:2.76598;paint-order:stroke markers fill;stop-color:#000000"
             id="rect6049"
             width="8.4666662"
             height="8.4666662"
             x="51.540611"
             y="25.942225" />
          <rect
             style="fill:none;fill-opacity:1;stroke-width:2.76598;paint-order:stroke markers fill;stop-color:#000000"
             id="rect6061"
             width="8.4666662"
             height="8.4666662"
             x="43.073944"
             y="34.408894" />
          <rect
             style="fill:none;fill-opacity:1;stroke-width:2.76598;paint-order:stroke markers fill;stop-color:#000000"
             id="rect6063"
             width="8.4666662"
             height="8.4666662"
             x="51.540611"
             y="34.408894" />
        </g>
        <g
           id="g8989"
           transform="matrix(1,0,0,0.90458361,0,3.9738208)">
          <circle
             style="fill:url(#radialGradient6123);fill-opacity:1;stroke:none;stroke-width:3.93687;paint-order:stroke markers fill;stop-color:#0b0b0b"
             id="circle6067"
             cx="46.514565"
             cy="29.779585"
             r="0.40052679" />
          <circle
             style="fill:url(#radialGradient7455);fill-opacity:1;stroke:none;stroke-width:4.33005;paint-order:stroke markers fill;stop-color:#0b0b0b"
             id="circle7453"
             cx="50.652542"
             cy="27.519741"
             r="0.44052771"
             inkscape:spray-origin="#circle6067" />
          <circle
             style="fill:url(#radialGradient7459);fill-opacity:1;stroke:none;stroke-width:5.0284;paint-order:stroke markers fill;stop-color:#0b0b0b"
             id="circle7457"
             cx="53.052929"
             cy="27.185076"
             r="0.51157647"
             inkscape:spray-origin="#circle6067" />
          <circle
             style="fill:url(#radialGradient7463);fill-opacity:1;stroke:none;stroke-width:3.28359;paint-order:stroke markers fill;stop-color:#0d0d0d"
             id="circle7461"
             cx="55.57357"
             cy="28.27655"
             r="0.33406347"
             inkscape:spray-origin="#circle6067" />
          <circle
             style="fill:url(#radialGradient7467);fill-opacity:1;stroke:none;stroke-width:4.90577;paint-order:stroke markers fill;stop-color:#0b0b0b"
             id="circle7465"
             cx="58.731438"
             cy="36.114273"
             r="0.49909964"
             inkscape:spray-origin="#circle6067" />
          <circle
             style="fill:url(#radialGradient7471);fill-opacity:1;stroke:none;stroke-width:2.96781;paint-order:stroke markers fill;stop-color:#0d0d0d"
             id="circle7469"
             cx="57.686623"
             cy="38.379292"
             r="0.30193734"
             inkscape:spray-origin="#circle6067" />
          <circle
             style="fill:url(#radialGradient7475);fill-opacity:1;stroke:none;stroke-width:3.67302;paint-order:stroke markers fill;stop-color:#0b0b0b"
             id="circle7473"
             cx="54.185104"
             cy="40.140751"
             r="0.3736833"
             inkscape:spray-origin="#circle6067" />
          <circle
             style="fill:url(#radialGradient7479);fill-opacity:1;stroke:none;stroke-width:3.90938;paint-order:stroke markers fill;stop-color:#0b0b0b"
             id="circle7477"
             cx="45.264725"
             cy="37.523281"
             r="0.39772999"
             inkscape:spray-origin="#circle6067" />
          <circle
             style="fill:url(#radialGradient7483);fill-opacity:1;stroke:none;stroke-width:5.03728;paint-order:stroke markers fill;stop-color:#0b0b0b"
             id="circle7481"
             cx="45.170319"
             cy="33.438793"
             r="0.51247972"
             inkscape:spray-origin="#circle6067" />
          <circle
             style="fill:url(#radialGradient7487);fill-opacity:1;stroke:none;stroke-width:4.79701;paint-order:stroke markers fill;stop-color:#0b0b0b"
             id="circle7485"
             cx="44.302387"
             cy="31.824581"
             r="0.48803475"
             inkscape:spray-origin="#circle6067" />
          <circle
             style="fill:url(#radialGradient7491);fill-opacity:1;stroke:none;stroke-width:5.10951;paint-order:stroke markers fill;stop-color:#0b0b0b"
             id="circle7489"
             cx="49.067326"
             cy="41.117123"
             r="0.51982796"
             inkscape:spray-origin="#circle6067" />
          <circle
             style="fill:url(#radialGradient7495);fill-opacity:1;stroke:none;stroke-width:5.08806;paint-order:stroke markers fill;stop-color:#0b0b0b"
             id="circle7493"
             cx="56.603355"
             cy="31.694164"
             r="0.51764554"
             inkscape:spray-origin="#circle6067" />
          <circle
             style="fill:url(#radialGradient7499);fill-opacity:1;stroke:none;stroke-width:3.62223;paint-order:stroke markers fill;stop-color:#0b0b0b"
             id="circle7497"
             cx="58.456093"
             cy="32.026009"
             r="0.3685165"
             inkscape:spray-origin="#circle6067" />
          <circle
             style="fill:url(#radialGradient7503);fill-opacity:1;stroke:none;stroke-width:4.7379;paint-order:stroke markers fill;stop-color:#0b0b0b"
             id="circle7501"
             cx="44.171658"
             cy="35.097454"
             r="0.48202103"
             inkscape:spray-origin="#circle6067" />
          <circle
             style="fill:url(#radialGradient7511);fill-opacity:1;stroke:none;stroke-width:3.17103;paint-order:stroke markers fill;stop-color:#0d0d0d"
             id="circle7509"
             cx="52.852978"
             cy="40.675671"
             r="0.32261199"
             inkscape:spray-origin="#circle6067" />
          <circle
             style="fill:url(#radialGradient7515);fill-opacity:1;stroke:none;stroke-width:3.34535;paint-order:stroke markers fill;stop-color:#0d0d0d"
             id="circle7513"
             cx="48.50795"
             cy="27.790581"
             r="0.34034708"
             inkscape:spray-origin="#circle6067" />
          <circle
             style="fill:url(#radialGradient7519);fill-opacity:1;stroke:none;stroke-width:2.87376;paint-order:stroke markers fill;stop-color:#0d0d0d"
             id="circle7517"
             cx="54.845833"
             cy="40.845291"
             r="0.29236913"
             inkscape:spray-origin="#circle6067" />
          <circle
             style="fill:url(#radialGradient7523);fill-opacity:1;stroke:none;stroke-width:2.93109;paint-order:stroke markers fill;stop-color:#0d0d0d"
             id="circle7521"
             cx="57.232861"
             cy="40.156109"
             r="0.29820177"
             inkscape:spray-origin="#circle6067" />
          <circle
             style="fill:url(#radialGradient7527);fill-opacity:1;stroke:none;stroke-width:3.28674;paint-order:stroke markers fill;stop-color:#0d0d0d"
             id="circle7525"
             cx="46.514721"
             cy="39.912003"
             r="0.3343839"
             inkscape:spray-origin="#circle6067" />
          <circle
             style="fill:url(#radialGradient7531);fill-opacity:1;stroke:none;stroke-width:3.53261;paint-order:stroke markers fill;stop-color:#0b0b0b"
             id="circle7529"
             cx="59.191223"
             cy="33.878559"
             r="0.35939869"
             inkscape:spray-origin="#circle6067" />
          <circle
             style="fill:url(#radialGradient7535);fill-opacity:1;stroke:none;stroke-width:3.87814;paint-order:stroke markers fill;stop-color:#0b0b0b"
             id="circle7533"
             cx="57.602188"
             cy="32.602547"
             r="0.39455143"
             inkscape:spray-origin="#circle6067" />
          <circle
             style="fill:url(#radialGradient7539);fill-opacity:1;stroke:none;stroke-width:2.76527;paint-order:stroke markers fill;stop-color:#0d0d0d"
             id="circle7537"
             cx="57.77116"
             cy="31.042894"
             r="0.28133157"
             inkscape:spray-origin="#circle6067" />
          <circle
             style="fill:url(#radialGradient7543);fill-opacity:1;stroke:none;stroke-width:4.02798;paint-order:stroke markers fill;stop-color:#0b0b0b"
             id="circle7541"
             cx="56.632095"
             cy="29.561502"
             r="0.40979618"
             inkscape:spray-origin="#circle6067" />
          <circle
             style="fill:url(#radialGradient7547);fill-opacity:1;stroke:none;stroke-width:4.27019;paint-order:stroke markers fill;stop-color:#0b0b0b"
             id="circle7545"
             cx="50.869793"
             cy="41.212715"
             r="0.43443745"
             inkscape:spray-origin="#circle6067" />
          <circle
             style="fill:url(#radialGradient7551);fill-opacity:1;stroke:none;stroke-width:2.76465;paint-order:stroke markers fill;stop-color:#0d0d0d"
             id="circle7549"
             cx="54.815857"
             cy="29.431129"
             r="0.28126863"
             inkscape:spray-origin="#circle6067" />
        </g>
      </g>
    </g>
  </g>
</svg>
